%!PS-Adobe-3.0 EPSF-3.0
%%Creator: MATLAB, The MathWorks, Inc. Version 8.1.0.604 (R2013a). Operating System: Microsoft Windows 8.
%%Title: D:\EE660\Project\ee660\imorl_err_rate.eps
%%CreationDate: 12/08/2015  20:51:33
%%DocumentNeededFonts: Helvetica
%%DocumentProcessColors: Cyan Magenta Yellow Black
%%LanguageLevel: 2
%%Pages: 1
%%BoundingBox:    96   238   515   553
%%EndComments

%%BeginProlog
% MathWorks dictionary
/MathWorks 160 dict begin
% definition operators
/bdef {bind def} bind def
/ldef {load def} bind def
/xdef {exch def} bdef
/xstore {exch store} bdef
% operator abbreviations
/c  /clip ldef
/cc /concat ldef
/cp /closepath ldef
/gr /grestore ldef
/gs /gsave ldef
/mt /moveto ldef
/np /newpath ldef
/cm /currentmatrix ldef
/sm /setmatrix ldef
/rm /rmoveto ldef
/rl /rlineto ldef
/s {show newpath} bdef
/sc {setcmykcolor} bdef
/sr /setrgbcolor ldef
/sg /setgray ldef
/w /setlinewidth ldef
/j /setlinejoin ldef
/cap /setlinecap ldef
/rc {rectclip} bdef
/rf {rectfill} bdef
% page state control
/pgsv () def
/bpage {/pgsv save def} bdef
/epage {pgsv restore} bdef
/bplot /gsave ldef
/eplot {stroke grestore} bdef
% orientation switch
/portraitMode 0 def /landscapeMode 1 def /rotateMode 2 def
% coordinate system mappings
/dpi2point 0 def
% font control
/FontSize 0 def
/FMS {/FontSize xstore findfont [FontSize 0 0 FontSize neg 0 0]
  makefont setfont} bdef
/ISOLatin1Encoding where {pop /WindowsLatin1Encoding 256 array bdef
ISOLatin1Encoding WindowsLatin1Encoding copy pop
/.notdef/.notdef/quotesinglbase/florin/quotedblbase/ellipsis/dagger
/daggerdbl/circumflex/perthousand/Scaron/guilsinglleft/OE/.notdef/.notdef
/.notdef/.notdef/quoteleft/quoteright/quotedblleft/quotedblright/bullet
/endash/emdash/tilde/trademark/scaron/guilsinglright/oe/.notdef/.notdef
/Ydieresis WindowsLatin1Encoding 128 32 getinterval astore pop}
{/WindowsLatin1Encoding StandardEncoding bdef} ifelse
/reencode {exch dup where {pop load} {pop StandardEncoding} ifelse
  exch dup 3 1 roll findfont dup length dict begin
  { 1 index /FID ne {def}{pop pop} ifelse } forall
  /Encoding exch def currentdict end definefont pop} bdef
/isroman {findfont /CharStrings get /Agrave known} bdef
/FMSR {3 1 roll 1 index dup isroman {reencode} {pop pop} ifelse
  exch FMS} bdef
/csm {1 dpi2point div -1 dpi2point div scale neg translate
 dup landscapeMode eq {pop -90 rotate}
  {rotateMode eq {90 rotate} if} ifelse} bdef
% line types: solid, dotted, dashed, dotdash
/SO { [] 0 setdash } bdef
/DO { [.5 dpi2point mul 4 dpi2point mul] 0 setdash } bdef
/DA { [6 dpi2point mul] 0 setdash } bdef
/DD { [.5 dpi2point mul 4 dpi2point mul 6 dpi2point mul 4
  dpi2point mul] 0 setdash } bdef
% macros for lines and objects
/L {lineto stroke} bdef
/MP {3 1 roll moveto 1 sub {rlineto} repeat} bdef
/AP {{rlineto} repeat} bdef
/PDlw -1 def
/W {/PDlw currentlinewidth def setlinewidth} def
/PP {closepath eofill} bdef
/DP {closepath stroke} bdef
/MR {4 -2 roll moveto dup  0 exch rlineto exch 0 rlineto
  neg 0 exch rlineto closepath} bdef
/FR {MR stroke} bdef
/PR {MR fill} bdef
/L1i {{currentfile picstr readhexstring pop} image} bdef
/tMatrix matrix def
/MakeOval {newpath tMatrix currentmatrix pop translate scale
0 0 1 0 360 arc tMatrix setmatrix} bdef
/FO {MakeOval stroke} bdef
/PO {MakeOval fill} bdef
/PD {currentlinewidth 2 div 0 360 arc fill
   PDlw -1 eq not {PDlw w /PDlw -1 def} if} def
/FA {newpath tMatrix currentmatrix pop translate scale
  0 0 1 5 -2 roll arc tMatrix setmatrix stroke} bdef
/PA {newpath tMatrix currentmatrix pop	translate 0 0 moveto scale
  0 0 1 5 -2 roll arc closepath tMatrix setmatrix fill} bdef
/FAn {newpath tMatrix currentmatrix pop translate scale
  0 0 1 5 -2 roll arcn tMatrix setmatrix stroke} bdef
/PAn {newpath tMatrix currentmatrix pop translate 0 0 moveto scale
  0 0 1 5 -2 roll arcn closepath tMatrix setmatrix fill} bdef
/vradius 0 def /hradius 0 def /lry 0 def
/lrx 0 def /uly 0 def /ulx 0 def /rad 0 def
/MRR {/vradius xdef /hradius xdef /lry xdef /lrx xdef /uly xdef
  /ulx xdef newpath tMatrix currentmatrix pop ulx hradius add uly
  vradius add translate hradius vradius scale 0 0 1 180 270 arc 
  tMatrix setmatrix lrx hradius sub uly vradius add translate
  hradius vradius scale 0 0 1 270 360 arc tMatrix setmatrix
  lrx hradius sub lry vradius sub translate hradius vradius scale
  0 0 1 0 90 arc tMatrix setmatrix ulx hradius add lry vradius sub
  translate hradius vradius scale 0 0 1 90 180 arc tMatrix setmatrix
  closepath} bdef
/FRR {MRR stroke } bdef
/PRR {MRR fill } bdef
/MlrRR {/lry xdef /lrx xdef /uly xdef /ulx xdef /rad lry uly sub 2 div def
  newpath tMatrix currentmatrix pop ulx rad add uly rad add translate
  rad rad scale 0 0 1 90 270 arc tMatrix setmatrix lrx rad sub lry rad
  sub translate rad rad scale 0 0 1 270 90 arc tMatrix setmatrix
  closepath} bdef
/FlrRR {MlrRR stroke } bdef
/PlrRR {MlrRR fill } bdef
/MtbRR {/lry xdef /lrx xdef /uly xdef /ulx xdef /rad lrx ulx sub 2 div def
  newpath tMatrix currentmatrix pop ulx rad add uly rad add translate
  rad rad scale 0 0 1 180 360 arc tMatrix setmatrix lrx rad sub lry rad
  sub translate rad rad scale 0 0 1 0 180 arc tMatrix setmatrix
  closepath} bdef
/FtbRR {MtbRR stroke } bdef
/PtbRR {MtbRR fill } bdef
/stri 6 array def /dtri 6 array def
/smat 6 array def /dmat 6 array def
/tmat1 6 array def /tmat2 6 array def /dif 3 array def
/asub {/ind2 exch def /ind1 exch def dup dup
  ind1 get exch ind2 get sub exch } bdef
/tri_to_matrix {
  2 0 asub 3 1 asub 4 0 asub 5 1 asub
  dup 0 get exch 1 get 7 -1 roll astore } bdef
/compute_transform {
  dmat dtri tri_to_matrix tmat1 invertmatrix 
  smat stri tri_to_matrix tmat2 concatmatrix } bdef
/ds {stri astore pop} bdef
/dt {dtri astore pop} bdef
/db {2 copy /cols xdef /rows xdef mul dup 3 mul string
  currentfile 
  3 index 0 eq {/ASCIIHexDecode filter}
  {/ASCII85Decode filter 3 index 2 eq {/RunLengthDecode filter} if }
  ifelse exch readstring pop
  dup 0 3 index getinterval /rbmap xdef
  dup 2 index dup getinterval /gbmap xdef
  1 index dup 2 mul exch getinterval /bbmap xdef pop pop}bdef
/it {gs np dtri aload pop moveto lineto lineto cp c
  cols rows 8 compute_transform 
  rbmap gbmap bbmap true 3 colorimage gr}bdef
/il {newpath moveto lineto stroke}bdef
currentdict end def
%%EndProlog

%%BeginSetup
MathWorks begin

0 cap

end
%%EndSetup

%%Page: 1 1
%%BeginPageSetup
%%PageBoundingBox:    96   238   515   553
MathWorks begin
bpage
%%EndPageSetup

%%BeginObject: obj1
bplot

/dpi2point 12 def
portraitMode 1152 6636 csm

    0     0  5039  3780 rc
85 dict begin %Colortable dictionary
/c0 { 0.000000 0.000000 0.000000 sr} bdef
/c1 { 1.000000 1.000000 1.000000 sr} bdef
/c2 { 0.900000 0.000000 0.000000 sr} bdef
/c3 { 0.000000 0.820000 0.000000 sr} bdef
/c4 { 0.000000 0.000000 0.800000 sr} bdef
/c5 { 0.910000 0.820000 0.320000 sr} bdef
/c6 { 1.000000 0.260000 0.820000 sr} bdef
/c7 { 0.000000 0.820000 0.820000 sr} bdef
c0
1 j
1 sg
   0    0 5040 3781 rf
6 w
0 3081 3905 0 0 -3081 655 3364 4 MP
PP
-3905 0 0 3081 3905 0 0 -3081 655 3364 5 MP stroke
4 w
DO
0 sg
1010 3364 mt 1010  283 L
1010  283 mt 1010  283 L
1404 3364 mt 1404  283 L
1404  283 mt 1404  283 L
1798 3364 mt 1798  283 L
1798  283 mt 1798  283 L
2193 3364 mt 2193  283 L
2193  283 mt 2193  283 L
2587 3364 mt 2587  283 L
2587  283 mt 2587  283 L
2982 3364 mt 2982  283 L
2982  283 mt 2982  283 L
3376 3364 mt 3376  283 L
3376  283 mt 3376  283 L
3771 3364 mt 3771  283 L
3771  283 mt 3771  283 L
4165 3364 mt 4165  283 L
4165  283 mt 4165  283 L
4560 3364 mt 4560  283 L
4560  283 mt 4560  283 L
 655 3364 mt 4560 3364 L
4560 3364 mt 4560 3364 L
 655 3055 mt 4560 3055 L
4560 3055 mt 4560 3055 L
 655 2747 mt 4560 2747 L
4560 2747 mt 4560 2747 L
 655 2439 mt 4560 2439 L
4560 2439 mt 4560 2439 L
 655 2131 mt 4560 2131 L
4560 2131 mt 4560 2131 L
 655 1823 mt 4560 1823 L
4560 1823 mt 4560 1823 L
 655 1515 mt 4560 1515 L
4560 1515 mt 4560 1515 L
 655 1207 mt 4560 1207 L
4560 1207 mt 4560 1207 L
 655  899 mt 4560  899 L
4560  899 mt 4560  899 L
 655  591 mt 4560  591 L
4560  591 mt 4560  591 L
 655  283 mt 4560  283 L
4560  283 mt 4560  283 L
SO
6 w
 655  283 mt 4560  283 L
 655 3364 mt 4560 3364 L
4560 3364 mt 4560  283 L
 655 3364 mt  655  283 L
 655 3364 mt 4560 3364 L
 655 3364 mt  655  283 L
1010 3364 mt 1010 3324 L
1010  283 mt 1010  322 L
%%IncludeResource: font Helvetica
/Helvetica /WindowsLatin1Encoding 120 FMSR

 944 3509 mt 
(10) s
1404 3364 mt 1404 3324 L
1404  283 mt 1404  322 L
1338 3509 mt 
(20) s
1798 3364 mt 1798 3324 L
1798  283 mt 1798  322 L
1732 3509 mt 
(30) s
2193 3364 mt 2193 3324 L
2193  283 mt 2193  322 L
2127 3509 mt 
(40) s
2587 3364 mt 2587 3324 L
2587  283 mt 2587  322 L
2521 3509 mt 
(50) s
2982 3364 mt 2982 3324 L
2982  283 mt 2982  322 L
2916 3509 mt 
(60) s
3376 3364 mt 3376 3324 L
3376  283 mt 3376  322 L
3310 3509 mt 
(70) s
3771 3364 mt 3771 3324 L
3771  283 mt 3771  322 L
3705 3509 mt 
(80) s
4165 3364 mt 4165 3324 L
4165  283 mt 4165  322 L
4099 3509 mt 
(90) s
4560 3364 mt 4560 3324 L
4560  283 mt 4560  322 L
4460 3509 mt 
(100) s
 655 3364 mt  694 3364 L
4560 3364 mt 4520 3364 L
 554 3408 mt 
(0) s
 655 3055 mt  694 3055 L
4560 3055 mt 4520 3055 L
 454 3099 mt 
(0.1) s
 655 2747 mt  694 2747 L
4560 2747 mt 4520 2747 L
 454 2791 mt 
(0.2) s
 655 2439 mt  694 2439 L
4560 2439 mt 4520 2439 L
 454 2483 mt 
(0.3) s
 655 2131 mt  694 2131 L
4560 2131 mt 4520 2131 L
 454 2175 mt 
(0.4) s
 655 1823 mt  694 1823 L
4560 1823 mt 4520 1823 L
 454 1867 mt 
(0.5) s
 655 1515 mt  694 1515 L
4560 1515 mt 4520 1515 L
 454 1559 mt 
(0.6) s
 655 1207 mt  694 1207 L
4560 1207 mt 4520 1207 L
 454 1251 mt 
(0.7) s
 655  899 mt  694  899 L
4560  899 mt 4520  899 L
 454  943 mt 
(0.8) s
 655  591 mt  694  591 L
4560  591 mt 4520  591 L
 454  635 mt 
(0.9) s
 655  283 mt  694  283 L
4560  283 mt 4520  283 L
 554  327 mt 
(1) s
 655  283 mt 4560  283 L
 655 3364 mt 4560 3364 L
4560 3364 mt 4560  283 L
 655 3364 mt  655  283 L
gs 655 283 3906 3082 rc
/c8 { 0.000000 0.000000 1.000000 sr} bdef
c8
40 488 39 37 40 -138 39 27 40 -1315 39 -18 40 745 39 -396 
39 902 40 -1316 39 10 40 1324 39 -129 40 -938 39 1223 40 -368 
39 414 39 -910 40 708 39 -221 40 396 39 -1223 40 993 39 193 
40 37 39 -350 39 386 40 -73 39 -377 40 -1131 39 505 40 1012 
39 -129 40 -570 39 681 39 -1003 40 561 39 276 40 -257 39 432 
40 18 39 -82 40 -1279 39 451 39 938 40 9 39 -230 40 230 
39 -119 40 -10 39 -1324 40 1131 39 83 39 248 40 -1379 39 671 
40 626 39 -92 40 36 39 10 40 -497 39 441 39 138 40 -9 
39 -18 40 -46 39 -773 40 745 39 138 40 -9 39 -1380 39 1132 
40 0 39 165 40 83 39 -74 40 -248 39 138 40 83 39 -1297 
39 1380 40 18 39 -901 40 910 39 -9 40 -64 39 -1178 40 837 
39 -919 39 1278 40 55 39 -1324 40 781 39 -873 40 1343 39 -442 
40 175 39 -359 39 589 655 411 100 MP stroke
gr

c8
0 sg
2360 3652 mt 
(Iterations) s
 372 2190 mt  -90 rotate
(Accuracy rate) s
90 rotate

end %%Color Dict

eplot
%%EndObject

epage
end

showpage

%%Trailer
%%EOF
