%!PS-Adobe-3.0 EPSF-3.0
%%Creator: MATLAB, The MathWorks, Inc. Version 8.1.0.604 (R2013a). Operating System: Microsoft Windows 8.
%%Title: D:\EE660\Project\ee660\imorl_err_rate_stem.eps
%%CreationDate: 12/08/2015  19:03:14
%%DocumentNeededFonts: Helvetica
%%DocumentProcessColors: Cyan Magenta Yellow Black
%%LanguageLevel: 2
%%Pages: 1
%%BoundingBox:    96   238   515   553
%%EndComments

%%BeginProlog
% MathWorks dictionary
/MathWorks 160 dict begin
% definition operators
/bdef {bind def} bind def
/ldef {load def} bind def
/xdef {exch def} bdef
/xstore {exch store} bdef
% operator abbreviations
/c  /clip ldef
/cc /concat ldef
/cp /closepath ldef
/gr /grestore ldef
/gs /gsave ldef
/mt /moveto ldef
/np /newpath ldef
/cm /currentmatrix ldef
/sm /setmatrix ldef
/rm /rmoveto ldef
/rl /rlineto ldef
/s {show newpath} bdef
/sc {setcmykcolor} bdef
/sr /setrgbcolor ldef
/sg /setgray ldef
/w /setlinewidth ldef
/j /setlinejoin ldef
/cap /setlinecap ldef
/rc {rectclip} bdef
/rf {rectfill} bdef
% page state control
/pgsv () def
/bpage {/pgsv save def} bdef
/epage {pgsv restore} bdef
/bplot /gsave ldef
/eplot {stroke grestore} bdef
% orientation switch
/portraitMode 0 def /landscapeMode 1 def /rotateMode 2 def
% coordinate system mappings
/dpi2point 0 def
% font control
/FontSize 0 def
/FMS {/FontSize xstore findfont [FontSize 0 0 FontSize neg 0 0]
  makefont setfont} bdef
/ISOLatin1Encoding where {pop /WindowsLatin1Encoding 256 array bdef
ISOLatin1Encoding WindowsLatin1Encoding copy pop
/.notdef/.notdef/quotesinglbase/florin/quotedblbase/ellipsis/dagger
/daggerdbl/circumflex/perthousand/Scaron/guilsinglleft/OE/.notdef/.notdef
/.notdef/.notdef/quoteleft/quoteright/quotedblleft/quotedblright/bullet
/endash/emdash/tilde/trademark/scaron/guilsinglright/oe/.notdef/.notdef
/Ydieresis WindowsLatin1Encoding 128 32 getinterval astore pop}
{/WindowsLatin1Encoding StandardEncoding bdef} ifelse
/reencode {exch dup where {pop load} {pop StandardEncoding} ifelse
  exch dup 3 1 roll findfont dup length dict begin
  { 1 index /FID ne {def}{pop pop} ifelse } forall
  /Encoding exch def currentdict end definefont pop} bdef
/isroman {findfont /CharStrings get /Agrave known} bdef
/FMSR {3 1 roll 1 index dup isroman {reencode} {pop pop} ifelse
  exch FMS} bdef
/csm {1 dpi2point div -1 dpi2point div scale neg translate
 dup landscapeMode eq {pop -90 rotate}
  {rotateMode eq {90 rotate} if} ifelse} bdef
% line types: solid, dotted, dashed, dotdash
/SO { [] 0 setdash } bdef
/DO { [.5 dpi2point mul 4 dpi2point mul] 0 setdash } bdef
/DA { [6 dpi2point mul] 0 setdash } bdef
/DD { [.5 dpi2point mul 4 dpi2point mul 6 dpi2point mul 4
  dpi2point mul] 0 setdash } bdef
% macros for lines and objects
/L {lineto stroke} bdef
/MP {3 1 roll moveto 1 sub {rlineto} repeat} bdef
/AP {{rlineto} repeat} bdef
/PDlw -1 def
/W {/PDlw currentlinewidth def setlinewidth} def
/PP {closepath eofill} bdef
/DP {closepath stroke} bdef
/MR {4 -2 roll moveto dup  0 exch rlineto exch 0 rlineto
  neg 0 exch rlineto closepath} bdef
/FR {MR stroke} bdef
/PR {MR fill} bdef
/L1i {{currentfile picstr readhexstring pop} image} bdef
/tMatrix matrix def
/MakeOval {newpath tMatrix currentmatrix pop translate scale
0 0 1 0 360 arc tMatrix setmatrix} bdef
/FO {MakeOval stroke} bdef
/PO {MakeOval fill} bdef
/PD {currentlinewidth 2 div 0 360 arc fill
   PDlw -1 eq not {PDlw w /PDlw -1 def} if} def
/FA {newpath tMatrix currentmatrix pop translate scale
  0 0 1 5 -2 roll arc tMatrix setmatrix stroke} bdef
/PA {newpath tMatrix currentmatrix pop	translate 0 0 moveto scale
  0 0 1 5 -2 roll arc closepath tMatrix setmatrix fill} bdef
/FAn {newpath tMatrix currentmatrix pop translate scale
  0 0 1 5 -2 roll arcn tMatrix setmatrix stroke} bdef
/PAn {newpath tMatrix currentmatrix pop translate 0 0 moveto scale
  0 0 1 5 -2 roll arcn closepath tMatrix setmatrix fill} bdef
/vradius 0 def /hradius 0 def /lry 0 def
/lrx 0 def /uly 0 def /ulx 0 def /rad 0 def
/MRR {/vradius xdef /hradius xdef /lry xdef /lrx xdef /uly xdef
  /ulx xdef newpath tMatrix currentmatrix pop ulx hradius add uly
  vradius add translate hradius vradius scale 0 0 1 180 270 arc 
  tMatrix setmatrix lrx hradius sub uly vradius add translate
  hradius vradius scale 0 0 1 270 360 arc tMatrix setmatrix
  lrx hradius sub lry vradius sub translate hradius vradius scale
  0 0 1 0 90 arc tMatrix setmatrix ulx hradius add lry vradius sub
  translate hradius vradius scale 0 0 1 90 180 arc tMatrix setmatrix
  closepath} bdef
/FRR {MRR stroke } bdef
/PRR {MRR fill } bdef
/MlrRR {/lry xdef /lrx xdef /uly xdef /ulx xdef /rad lry uly sub 2 div def
  newpath tMatrix currentmatrix pop ulx rad add uly rad add translate
  rad rad scale 0 0 1 90 270 arc tMatrix setmatrix lrx rad sub lry rad
  sub translate rad rad scale 0 0 1 270 90 arc tMatrix setmatrix
  closepath} bdef
/FlrRR {MlrRR stroke } bdef
/PlrRR {MlrRR fill } bdef
/MtbRR {/lry xdef /lrx xdef /uly xdef /ulx xdef /rad lrx ulx sub 2 div def
  newpath tMatrix currentmatrix pop ulx rad add uly rad add translate
  rad rad scale 0 0 1 180 360 arc tMatrix setmatrix lrx rad sub lry rad
  sub translate rad rad scale 0 0 1 0 180 arc tMatrix setmatrix
  closepath} bdef
/FtbRR {MtbRR stroke } bdef
/PtbRR {MtbRR fill } bdef
/stri 6 array def /dtri 6 array def
/smat 6 array def /dmat 6 array def
/tmat1 6 array def /tmat2 6 array def /dif 3 array def
/asub {/ind2 exch def /ind1 exch def dup dup
  ind1 get exch ind2 get sub exch } bdef
/tri_to_matrix {
  2 0 asub 3 1 asub 4 0 asub 5 1 asub
  dup 0 get exch 1 get 7 -1 roll astore } bdef
/compute_transform {
  dmat dtri tri_to_matrix tmat1 invertmatrix 
  smat stri tri_to_matrix tmat2 concatmatrix } bdef
/ds {stri astore pop} bdef
/dt {dtri astore pop} bdef
/db {2 copy /cols xdef /rows xdef mul dup 3 mul string
  currentfile 
  3 index 0 eq {/ASCIIHexDecode filter}
  {/ASCII85Decode filter 3 index 2 eq {/RunLengthDecode filter} if }
  ifelse exch readstring pop
  dup 0 3 index getinterval /rbmap xdef
  dup 2 index dup getinterval /gbmap xdef
  1 index dup 2 mul exch getinterval /bbmap xdef pop pop}bdef
/it {gs np dtri aload pop moveto lineto lineto cp c
  cols rows 8 compute_transform 
  rbmap gbmap bbmap true 3 colorimage gr}bdef
/il {newpath moveto lineto stroke}bdef
currentdict end def
%%EndProlog

%%BeginSetup
MathWorks begin

0 cap

end
%%EndSetup

%%Page: 1 1
%%BeginPageSetup
%%PageBoundingBox:    96   238   515   553
MathWorks begin
bpage
%%EndPageSetup

%%BeginObject: obj1
bplot

/dpi2point 12 def
portraitMode 1152 6636 csm

    0     0  5039  3780 rc
85 dict begin %Colortable dictionary
/c0 { 0.000000 0.000000 0.000000 sr} bdef
/c1 { 1.000000 1.000000 1.000000 sr} bdef
/c2 { 0.900000 0.000000 0.000000 sr} bdef
/c3 { 0.000000 0.820000 0.000000 sr} bdef
/c4 { 0.000000 0.000000 0.800000 sr} bdef
/c5 { 0.910000 0.820000 0.320000 sr} bdef
/c6 { 1.000000 0.260000 0.820000 sr} bdef
/c7 { 0.000000 0.820000 0.820000 sr} bdef
c0
1 j
1 sg
   0    0 5040 3781 rf
6 w
0 3081 3905 0 0 -3081 655 3364 4 MP
PP
-3905 0 0 3081 3905 0 0 -3081 655 3364 5 MP stroke
4 w
DO
SO
6 w
0 sg
 655  283 mt 4560  283 L
 655 3364 mt 4560 3364 L
4560 3364 mt 4560  283 L
 655 3364 mt  655  283 L
 655 3364 mt 4560 3364 L
 655 3364 mt  655  283 L
 655 3364 mt  655 3324 L
 655  283 mt  655  322 L
%%IncludeResource: font Helvetica
/Helvetica /WindowsLatin1Encoding 120 FMSR

 622 3509 mt 
(0) s
1436 3364 mt 1436 3324 L
1436  283 mt 1436  322 L
1370 3509 mt 
(20) s
2217 3364 mt 2217 3324 L
2217  283 mt 2217  322 L
2151 3509 mt 
(40) s
2998 3364 mt 2998 3324 L
2998  283 mt 2998  322 L
2932 3509 mt 
(60) s
3779 3364 mt 3779 3324 L
3779  283 mt 3779  322 L
3713 3509 mt 
(80) s
4560 3364 mt 4560 3324 L
4560  283 mt 4560  322 L
4460 3509 mt 
(100) s
 655 3364 mt  694 3364 L
4560 3364 mt 4520 3364 L
 554 3408 mt 
(0) s
 655 3055 mt  694 3055 L
4560 3055 mt 4520 3055 L
 454 3099 mt 
(0.1) s
 655 2747 mt  694 2747 L
4560 2747 mt 4520 2747 L
 454 2791 mt 
(0.2) s
 655 2439 mt  694 2439 L
4560 2439 mt 4520 2439 L
 454 2483 mt 
(0.3) s
 655 2131 mt  694 2131 L
4560 2131 mt 4520 2131 L
 454 2175 mt 
(0.4) s
 655 1823 mt  694 1823 L
4560 1823 mt 4520 1823 L
 454 1867 mt 
(0.5) s
 655 1515 mt  694 1515 L
4560 1515 mt 4520 1515 L
 454 1559 mt 
(0.6) s
 655 1207 mt  694 1207 L
4560 1207 mt 4520 1207 L
 454 1251 mt 
(0.7) s
 655  899 mt  694  899 L
4560  899 mt 4520  899 L
 454  943 mt 
(0.8) s
 655  591 mt  694  591 L
4560  591 mt 4520  591 L
 454  635 mt 
(0.9) s
 655  283 mt  694  283 L
4560  283 mt 4520  283 L
 554  327 mt 
(1) s
 655  283 mt 4560  283 L
 655 3364 mt 4560 3364 L
4560 3364 mt 4560  283 L
 655 3364 mt  655  283 L
gs 655 283 3906 3082 rc
gr

/c8 { 0.000000 0.000000 1.000000 sr} bdef
c8
  36   36  694 1092 FO
  36   36  733  338 FO
  36   36  772 1671 FO
  36   36  811  319 FO
  36   36  850  301 FO
  36   36  889  402 FO
  36   36  928  742 FO
  36   36  967  310 FO
  36   36 1006 1542 FO
  36   36 1045  798 FO
  36   36 1084 1230 FO
  36   36 1123  586 FO
  36   36 1162  292 FO
  36   36 1201  512 FO
  36   36 1240  798 FO
  36   36 1279  614 FO
  36   36 1318  301 FO
  36   36 1357 1708 FO
  36   36 1396  448 FO
  36   36 1436  494 FO
  36   36 1475  908 FO
  36   36 1514  788 FO
  36   36 1553  420 FO
  36   36 1592  356 FO
  36   36 1631  531 FO
  36   36 1670  365 FO
  36   36 1709  328 FO
  36   36 1748  283 FO
  36   36 1787  503 FO
  36   36 1826  356 FO
  36   36 1865 1791 FO
  36   36 1904 1736 FO
  36   36 1943 1680 FO
  36   36 1982  338 FO
  36   36 2021  430 FO
  36   36 2060  402 FO
  36   36 2099  365 FO
  36   36 2138 1064 FO
  36   36 2177 1699 FO
  36   36 2217  816 FO
  36   36 2256  420 FO
  36   36 2295  310 FO
  36   36 2334  347 FO
  36   36 2373  356 FO
  36   36 2412  696 FO
  36   36 2451  328 FO
  36   36 2490  420 FO
  36   36 2529  549 FO
  36   36 2568  319 FO
  36   36 2607  301 FO
  36   36 2646  549 FO
  36   36 2685 1653 FO
  36   36 2724  660 FO
  36   36 2763  411 FO
  36   36 2802  825 FO
  36   36 2841 1083 FO
  36   36 2880  439 FO
  36   36 2919  466 FO
  36   36 2958 1147 FO
  36   36 2998 1662 FO
  36   36 3037  577 FO
  36   36 3076 1147 FO
  36   36 3115  338 FO
  36   36 3154  402 FO
  36   36 3193  457 FO
  36   36 3232  301 FO
  36   36 3271 1294 FO
  36   36 3310  301 FO
  36   36 3349  356 FO
  36   36 3388 1110 FO
  36   36 3427  577 FO
  36   36 3466 1717 FO
  36   36 3505 1506 FO
  36   36 3544  393 FO
  36   36 3583 1561 FO
  36   36 3622  310 FO
  36   36 3661  319 FO
  36   36 3700  917 FO
  36   36 3739  448 FO
  36   36 3779  301 FO
  36   36 3818  374 FO
  36   36 3857  319 FO
  36   36 3896  439 FO
  36   36 3935  558 FO
  36   36 3974  338 FO
  36   36 4013  448 FO
  36   36 4052  301 FO
  36   36 4091  430 FO
  36   36 4130  319 FO
  36   36 4169  301 FO
  36   36 4208  328 FO
  36   36 4247  457 FO
  36   36 4286 1662 FO
  36   36 4325  770 FO
  36   36 4364  310 FO
  36   36 4403  945 FO
  36   36 4442 1506 FO
  36   36 4481 1092 FO
  36   36 4520 1699 FO
  36   36 4560  871 FO
gs 655 283 3906 3082 rc
0 -2272 694 3364 2 MP stroke
0 -3026 733 3364 2 MP stroke
0 -1693 772 3364 2 MP stroke
0 -3045 811 3364 2 MP stroke
0 -3063 850 3364 2 MP stroke
0 -2962 889 3364 2 MP stroke
0 -2622 928 3364 2 MP stroke
0 -3054 967 3364 2 MP stroke
0 -1822 1006 3364 2 MP stroke
0 -2566 1045 3364 2 MP stroke
0 -2134 1084 3364 2 MP stroke
0 -2778 1123 3364 2 MP stroke
0 -3072 1162 3364 2 MP stroke
0 -2852 1201 3364 2 MP stroke
0 -2566 1240 3364 2 MP stroke
0 -2750 1279 3364 2 MP stroke
0 -3063 1318 3364 2 MP stroke
0 -1656 1357 3364 2 MP stroke
0 -2916 1396 3364 2 MP stroke
0 -2870 1436 3364 2 MP stroke
0 -2456 1475 3364 2 MP stroke
0 -2576 1514 3364 2 MP stroke
0 -2944 1553 3364 2 MP stroke
0 -3008 1592 3364 2 MP stroke
0 -2833 1631 3364 2 MP stroke
0 -2999 1670 3364 2 MP stroke
0 -3036 1709 3364 2 MP stroke
0 -3081 1748 3364 2 MP stroke
0 -2861 1787 3364 2 MP stroke
0 -3008 1826 3364 2 MP stroke
0 -1573 1865 3364 2 MP stroke
0 -1628 1904 3364 2 MP stroke
0 -1684 1943 3364 2 MP stroke
0 -3026 1982 3364 2 MP stroke
0 -2934 2021 3364 2 MP stroke
0 -2962 2060 3364 2 MP stroke
0 -2999 2099 3364 2 MP stroke
0 -2300 2138 3364 2 MP stroke
0 -1665 2177 3364 2 MP stroke
0 -2548 2217 3364 2 MP stroke
0 -2944 2256 3364 2 MP stroke
0 -3054 2295 3364 2 MP stroke
0 -3017 2334 3364 2 MP stroke
0 -3008 2373 3364 2 MP stroke
0 -2668 2412 3364 2 MP stroke
0 -3036 2451 3364 2 MP stroke
0 -2944 2490 3364 2 MP stroke
0 -2815 2529 3364 2 MP stroke
0 -3045 2568 3364 2 MP stroke
0 -3063 2607 3364 2 MP stroke
0 -2815 2646 3364 2 MP stroke
0 -1711 2685 3364 2 MP stroke
0 -2704 2724 3364 2 MP stroke
0 -2953 2763 3364 2 MP stroke
0 -2539 2802 3364 2 MP stroke
0 -2281 2841 3364 2 MP stroke
0 -2925 2880 3364 2 MP stroke
0 -2898 2919 3364 2 MP stroke
0 -2217 2958 3364 2 MP stroke
0 -1702 2998 3364 2 MP stroke
0 -2787 3037 3364 2 MP stroke
0 -2217 3076 3364 2 MP stroke
0 -3026 3115 3364 2 MP stroke
0 -2962 3154 3364 2 MP stroke
0 -2907 3193 3364 2 MP stroke
0 -3063 3232 3364 2 MP stroke
0 -2070 3271 3364 2 MP stroke
0 -3063 3310 3364 2 MP stroke
0 -3008 3349 3364 2 MP stroke
0 -2254 3388 3364 2 MP stroke
0 -2787 3427 3364 2 MP stroke
0 -1647 3466 3364 2 MP stroke
0 -1858 3505 3364 2 MP stroke
0 -2971 3544 3364 2 MP stroke
0 -1803 3583 3364 2 MP stroke
0 -3054 3622 3364 2 MP stroke
0 -3045 3661 3364 2 MP stroke
0 -2447 3700 3364 2 MP stroke
0 -2916 3739 3364 2 MP stroke
0 -3063 3779 3364 2 MP stroke
0 -2990 3818 3364 2 MP stroke
0 -3045 3857 3364 2 MP stroke
0 -2925 3896 3364 2 MP stroke
0 -2806 3935 3364 2 MP stroke
0 -3026 3974 3364 2 MP stroke
0 -2916 4013 3364 2 MP stroke
0 -3063 4052 3364 2 MP stroke
0 -2934 4091 3364 2 MP stroke
0 -3045 4130 3364 2 MP stroke
0 -3063 4169 3364 2 MP stroke
0 -3036 4208 3364 2 MP stroke
0 -2907 4247 3364 2 MP stroke
0 -1702 4286 3364 2 MP stroke
0 -2594 4325 3364 2 MP stroke
0 -3054 4364 3364 2 MP stroke
0 -2419 4403 3364 2 MP stroke
0 -1858 4442 3364 2 MP stroke
0 -2272 4481 3364 2 MP stroke
0 -1665 4520 3364 2 MP stroke
0 -2493 4560 3364 2 MP stroke
0 sg
3905 0 655 3364 2 MP stroke
gr

0 sg
2238 3652 mt 
(Iterations -->) s
 372 2199 mt  -90 rotate
(Error rate -->) s
90 rotate

end %%Color Dict

eplot
%%EndObject

epage
end

showpage

%%Trailer
%%EOF
