\relax 
\FN@pp@footnotehinttrue 
\@writefile{toc}{\contentsline {chapter}{\numberline {5}Implementation}{10}{chapter.5}}
\@writefile{lof}{\addvspace {10\p@ }}
\@writefile{lot}{\addvspace {10\p@ }}
\@writefile{toc}{\contentsline {section}{\numberline {5.1}Database}{10}{section.5.1}}
\@writefile{toc}{\contentsline {subsection}{\numberline {5.1.1}Video Database}{10}{subsection.5.1.1}}
\@writefile{lof}{\contentsline {figure}{\numberline {5.1}{\ignorespaces Image from Video database}}{10}{figure.5.1}}
\newlabel{Fig:VD}{{5.1}{10}{Image from Video database\relax }{figure.5.1}{}}
\@writefile{toc}{\contentsline {subsection}{\numberline {5.1.2}Still Images database}{11}{subsection.5.1.2}}
\@writefile{lof}{\contentsline {figure}{\numberline {5.2}{\ignorespaces tree}}{11}{figure.5.2}}
\newlabel{fig:minipage1}{{5.2}{11}{tree\relax }{figure.5.2}{}}
\@writefile{lof}{\contentsline {figure}{\numberline {5.3}{\ignorespaces building}}{11}{figure.5.3}}
\newlabel{fig:minipage2}{{5.3}{11}{building\relax }{figure.5.3}{}}
\@writefile{lof}{\contentsline {figure}{\numberline {5.4}{\ignorespaces car}}{11}{figure.5.4}}
\newlabel{fig:minipage2}{{5.4}{11}{car\relax }{figure.5.4}{}}
\@writefile{lof}{\contentsline {figure}{\numberline {5.5}{\ignorespaces sample images from database}}{11}{figure.5.5}}
\@writefile{toc}{\contentsline {section}{\numberline {5.2}IMORL Implementation}{11}{section.5.2}}
\@writefile{toc}{\contentsline {section}{\numberline {5.3}HOG-SVM/DT/k-NN}{12}{section.5.3}}
\FN@pp@footnotehinttrue 
\@setckpt{Implementation/implementation}{
\setcounter{page}{13}
\setcounter{equation}{0}
\setcounter{enumi}{0}
\setcounter{enumii}{0}
\setcounter{enumiii}{0}
\setcounter{enumiv}{0}
\setcounter{footnote}{0}
\setcounter{mpfootnote}{0}
\setcounter{part}{0}
\setcounter{chapter}{5}
\setcounter{section}{3}
\setcounter{subsection}{0}
\setcounter{subsubsection}{0}
\setcounter{paragraph}{0}
\setcounter{subparagraph}{0}
\setcounter{figure}{5}
\setcounter{table}{0}
\setcounter{pp@next@reset}{1}
\setcounter{@fnserial}{0}
\setcounter{NAT@ctr}{0}
\setcounter{Item}{0}
\setcounter{Hfootnote}{0}
\setcounter{bookmark@seq@number}{16}
\setcounter{lips@count}{0}
\setcounter{subfigure}{0}
\setcounter{lofdepth}{1}
\setcounter{subtable}{0}
\setcounter{lotdepth}{1}
\setcounter{parentequation}{0}
\setcounter{float@type}{4}
\setcounter{section@level}{1}
}
