\relax 
\providecommand\HyperFirstAtBeginDocument{\AtBeginDocument}
\HyperFirstAtBeginDocument{\ifx\hyper@anchor\@undefined
\global\let\oldcontentsline\contentsline
\gdef\contentsline#1#2#3#4{\oldcontentsline{#1}{#2}{#3}}
\global\let\oldnewlabel\newlabel
\gdef\newlabel#1#2{\newlabelxx{#1}#2}
\gdef\newlabelxx#1#2#3#4#5#6{\oldnewlabel{#1}{{#2}{#3}}}
\AtEndDocument{\ifx\hyper@anchor\@undefined
\let\contentsline\oldcontentsline
\let\newlabel\oldnewlabel
\fi}
\fi}
\global\let\hyper@last\relax 
\gdef\HyperFirstAtBeginDocument#1{#1}
\providecommand\HyField@AuxAddToFields[1]{}
\select@language{english}
\@writefile{toc}{\select@language{english}}
\@writefile{lof}{\select@language{english}}
\@writefile{lot}{\select@language{english}}
\providecommand {\FN@pp@footnotehinttrue }{}
\providecommand {\FN@pp@footnote@aux }[2]{}
\@input{Abstract/abstract.aux}
\FN@pp@footnotehinttrue 
\FN@pp@footnotehinttrue 
\FN@pp@footnotehinttrue 
\@writefile{toc}{\contentsline {chapter}{\numberline {1}Project Homepage}{1}{chapter.1}}
\@writefile{lof}{\addvspace {10\p@ }}
\@writefile{lot}{\addvspace {10\p@ }}
\FN@pp@footnotehinttrue 
\@input{Introduction/introduction.aux}
\@input{Prior/prior.aux}
\FN@pp@footnotehinttrue 
\@input{Methodology/methodology.aux}
\FN@pp@footnotehinttrue 
\@input{Implementation/implementation.aux}
\FN@pp@footnotehinttrue 
\@input{Results/results.aux}
\FN@pp@footnotehinttrue 
\@input{Tried/tried.aux}
\FN@pp@footnotehinttrue 
\@input{Conclusions/conclusions.aux}
\FN@pp@footnotehinttrue 
\bibstyle{unsrt}
\bibdata{References/Ref}
\bibcite{imorl}{{1}{}{{}}{{}}}
\bibcite{svm}{{2}{}{{}}{{}}}
\bibcite{matlab}{{3}{}{{}}{{}}}
\bibcite{microsoft}{{4}{}{{}}{{}}}
\providecommand\NAT@force@numbers{}\NAT@force@numbers
\FN@pp@footnotehinttrue 
\FN@pp@footnotehinttrue 
