\BOOKMARK [0][]{chapter.1}{1 Project Homepage}{}% 1
\BOOKMARK [0][]{chapter.2}{2 Problem Statement and Goals}{}% 2
\BOOKMARK [0][]{chapter.3}{3 Prior and Related Work}{}% 3
\BOOKMARK [0][]{chapter.4}{4 Project Formulation, Setup and Methodology}{}% 4
\BOOKMARK [1][]{section.4.1}{4.1 IMORL framework}{chapter.4}% 5
\BOOKMARK [1][]{section.4.2}{4.2 Histogram of Oriented Gradients}{chapter.4}% 6
\BOOKMARK [1][]{section.4.3}{4.3 Support Vector Machine}{chapter.4}% 7
\BOOKMARK [1][]{section.4.4}{4.4 Decision Trees}{chapter.4}% 8
\BOOKMARK [1][]{section.4.5}{4.5 k-Nearest Neighbor}{chapter.4}% 9
\BOOKMARK [1][]{section.4.6}{4.6 Methodology}{chapter.4}% 10
\BOOKMARK [0][]{chapter.5}{5 Implementation}{}% 11
\BOOKMARK [1][]{section.5.1}{5.1 Database}{chapter.5}% 12
\BOOKMARK [2][]{subsection.5.1.1}{5.1.1 Video Database}{section.5.1}% 13
\BOOKMARK [2][]{subsection.5.1.2}{5.1.2 Still Images database}{section.5.1}% 14
\BOOKMARK [1][]{section.5.2}{5.2 IMORL Implementation}{chapter.5}% 15
\BOOKMARK [1][]{section.5.3}{5.3 HOG-SVM/DT/k-NN}{chapter.5}% 16
\BOOKMARK [0][]{chapter.6}{6 Results and Interpretation}{}% 17
\BOOKMARK [0][]{chapter.7}{7 Description of tried and used algorithms}{}% 18
\BOOKMARK [0][]{chapter.8}{8 Conclusions}{}% 19
