%!PS-Adobe-3.0 EPSF-3.0
%%Creator: MATLAB, The MathWorks, Inc. Version 8.1.0.604 (R2013a). Operating System: Microsoft Windows 8.
%%Title: D:\EE660\Project\ee660\imorl_err_rate.eps
%%CreationDate: 12/08/2015  19:02:20
%%DocumentNeededFonts: Helvetica
%%DocumentProcessColors: Cyan Magenta Yellow Black
%%LanguageLevel: 2
%%Pages: 1
%%BoundingBox:    96   238   515   553
%%EndComments

%%BeginProlog
% MathWorks dictionary
/MathWorks 160 dict begin
% definition operators
/bdef {bind def} bind def
/ldef {load def} bind def
/xdef {exch def} bdef
/xstore {exch store} bdef
% operator abbreviations
/c  /clip ldef
/cc /concat ldef
/cp /closepath ldef
/gr /grestore ldef
/gs /gsave ldef
/mt /moveto ldef
/np /newpath ldef
/cm /currentmatrix ldef
/sm /setmatrix ldef
/rm /rmoveto ldef
/rl /rlineto ldef
/s {show newpath} bdef
/sc {setcmykcolor} bdef
/sr /setrgbcolor ldef
/sg /setgray ldef
/w /setlinewidth ldef
/j /setlinejoin ldef
/cap /setlinecap ldef
/rc {rectclip} bdef
/rf {rectfill} bdef
% page state control
/pgsv () def
/bpage {/pgsv save def} bdef
/epage {pgsv restore} bdef
/bplot /gsave ldef
/eplot {stroke grestore} bdef
% orientation switch
/portraitMode 0 def /landscapeMode 1 def /rotateMode 2 def
% coordinate system mappings
/dpi2point 0 def
% font control
/FontSize 0 def
/FMS {/FontSize xstore findfont [FontSize 0 0 FontSize neg 0 0]
  makefont setfont} bdef
/ISOLatin1Encoding where {pop /WindowsLatin1Encoding 256 array bdef
ISOLatin1Encoding WindowsLatin1Encoding copy pop
/.notdef/.notdef/quotesinglbase/florin/quotedblbase/ellipsis/dagger
/daggerdbl/circumflex/perthousand/Scaron/guilsinglleft/OE/.notdef/.notdef
/.notdef/.notdef/quoteleft/quoteright/quotedblleft/quotedblright/bullet
/endash/emdash/tilde/trademark/scaron/guilsinglright/oe/.notdef/.notdef
/Ydieresis WindowsLatin1Encoding 128 32 getinterval astore pop}
{/WindowsLatin1Encoding StandardEncoding bdef} ifelse
/reencode {exch dup where {pop load} {pop StandardEncoding} ifelse
  exch dup 3 1 roll findfont dup length dict begin
  { 1 index /FID ne {def}{pop pop} ifelse } forall
  /Encoding exch def currentdict end definefont pop} bdef
/isroman {findfont /CharStrings get /Agrave known} bdef
/FMSR {3 1 roll 1 index dup isroman {reencode} {pop pop} ifelse
  exch FMS} bdef
/csm {1 dpi2point div -1 dpi2point div scale neg translate
 dup landscapeMode eq {pop -90 rotate}
  {rotateMode eq {90 rotate} if} ifelse} bdef
% line types: solid, dotted, dashed, dotdash
/SO { [] 0 setdash } bdef
/DO { [.5 dpi2point mul 4 dpi2point mul] 0 setdash } bdef
/DA { [6 dpi2point mul] 0 setdash } bdef
/DD { [.5 dpi2point mul 4 dpi2point mul 6 dpi2point mul 4
  dpi2point mul] 0 setdash } bdef
% macros for lines and objects
/L {lineto stroke} bdef
/MP {3 1 roll moveto 1 sub {rlineto} repeat} bdef
/AP {{rlineto} repeat} bdef
/PDlw -1 def
/W {/PDlw currentlinewidth def setlinewidth} def
/PP {closepath eofill} bdef
/DP {closepath stroke} bdef
/MR {4 -2 roll moveto dup  0 exch rlineto exch 0 rlineto
  neg 0 exch rlineto closepath} bdef
/FR {MR stroke} bdef
/PR {MR fill} bdef
/L1i {{currentfile picstr readhexstring pop} image} bdef
/tMatrix matrix def
/MakeOval {newpath tMatrix currentmatrix pop translate scale
0 0 1 0 360 arc tMatrix setmatrix} bdef
/FO {MakeOval stroke} bdef
/PO {MakeOval fill} bdef
/PD {currentlinewidth 2 div 0 360 arc fill
   PDlw -1 eq not {PDlw w /PDlw -1 def} if} def
/FA {newpath tMatrix currentmatrix pop translate scale
  0 0 1 5 -2 roll arc tMatrix setmatrix stroke} bdef
/PA {newpath tMatrix currentmatrix pop	translate 0 0 moveto scale
  0 0 1 5 -2 roll arc closepath tMatrix setmatrix fill} bdef
/FAn {newpath tMatrix currentmatrix pop translate scale
  0 0 1 5 -2 roll arcn tMatrix setmatrix stroke} bdef
/PAn {newpath tMatrix currentmatrix pop translate 0 0 moveto scale
  0 0 1 5 -2 roll arcn closepath tMatrix setmatrix fill} bdef
/vradius 0 def /hradius 0 def /lry 0 def
/lrx 0 def /uly 0 def /ulx 0 def /rad 0 def
/MRR {/vradius xdef /hradius xdef /lry xdef /lrx xdef /uly xdef
  /ulx xdef newpath tMatrix currentmatrix pop ulx hradius add uly
  vradius add translate hradius vradius scale 0 0 1 180 270 arc 
  tMatrix setmatrix lrx hradius sub uly vradius add translate
  hradius vradius scale 0 0 1 270 360 arc tMatrix setmatrix
  lrx hradius sub lry vradius sub translate hradius vradius scale
  0 0 1 0 90 arc tMatrix setmatrix ulx hradius add lry vradius sub
  translate hradius vradius scale 0 0 1 90 180 arc tMatrix setmatrix
  closepath} bdef
/FRR {MRR stroke } bdef
/PRR {MRR fill } bdef
/MlrRR {/lry xdef /lrx xdef /uly xdef /ulx xdef /rad lry uly sub 2 div def
  newpath tMatrix currentmatrix pop ulx rad add uly rad add translate
  rad rad scale 0 0 1 90 270 arc tMatrix setmatrix lrx rad sub lry rad
  sub translate rad rad scale 0 0 1 270 90 arc tMatrix setmatrix
  closepath} bdef
/FlrRR {MlrRR stroke } bdef
/PlrRR {MlrRR fill } bdef
/MtbRR {/lry xdef /lrx xdef /uly xdef /ulx xdef /rad lrx ulx sub 2 div def
  newpath tMatrix currentmatrix pop ulx rad add uly rad add translate
  rad rad scale 0 0 1 180 360 arc tMatrix setmatrix lrx rad sub lry rad
  sub translate rad rad scale 0 0 1 0 180 arc tMatrix setmatrix
  closepath} bdef
/FtbRR {MtbRR stroke } bdef
/PtbRR {MtbRR fill } bdef
/stri 6 array def /dtri 6 array def
/smat 6 array def /dmat 6 array def
/tmat1 6 array def /tmat2 6 array def /dif 3 array def
/asub {/ind2 exch def /ind1 exch def dup dup
  ind1 get exch ind2 get sub exch } bdef
/tri_to_matrix {
  2 0 asub 3 1 asub 4 0 asub 5 1 asub
  dup 0 get exch 1 get 7 -1 roll astore } bdef
/compute_transform {
  dmat dtri tri_to_matrix tmat1 invertmatrix 
  smat stri tri_to_matrix tmat2 concatmatrix } bdef
/ds {stri astore pop} bdef
/dt {dtri astore pop} bdef
/db {2 copy /cols xdef /rows xdef mul dup 3 mul string
  currentfile 
  3 index 0 eq {/ASCIIHexDecode filter}
  {/ASCII85Decode filter 3 index 2 eq {/RunLengthDecode filter} if }
  ifelse exch readstring pop
  dup 0 3 index getinterval /rbmap xdef
  dup 2 index dup getinterval /gbmap xdef
  1 index dup 2 mul exch getinterval /bbmap xdef pop pop}bdef
/it {gs np dtri aload pop moveto lineto lineto cp c
  cols rows 8 compute_transform 
  rbmap gbmap bbmap true 3 colorimage gr}bdef
/il {newpath moveto lineto stroke}bdef
currentdict end def
%%EndProlog

%%BeginSetup
MathWorks begin

0 cap

end
%%EndSetup

%%Page: 1 1
%%BeginPageSetup
%%PageBoundingBox:    96   238   515   553
MathWorks begin
bpage
%%EndPageSetup

%%BeginObject: obj1
bplot

/dpi2point 12 def
portraitMode 1152 6636 csm

    0     0  5039  3780 rc
85 dict begin %Colortable dictionary
/c0 { 0.000000 0.000000 0.000000 sr} bdef
/c1 { 1.000000 1.000000 1.000000 sr} bdef
/c2 { 0.900000 0.000000 0.000000 sr} bdef
/c3 { 0.000000 0.820000 0.000000 sr} bdef
/c4 { 0.000000 0.000000 0.800000 sr} bdef
/c5 { 0.910000 0.820000 0.320000 sr} bdef
/c6 { 1.000000 0.260000 0.820000 sr} bdef
/c7 { 0.000000 0.820000 0.820000 sr} bdef
c0
1 j
1 sg
   0    0 5040 3781 rf
6 w
0 3081 3905 0 0 -3081 655 3364 4 MP
PP
-3905 0 0 3081 3905 0 0 -3081 655 3364 5 MP stroke
4 w
DO
SO
6 w
0 sg
 655  283 mt 4560  283 L
 655 3364 mt 4560 3364 L
4560 3364 mt 4560  283 L
 655 3364 mt  655  283 L
 655 3364 mt 4560 3364 L
 655 3364 mt  655  283 L
 655 3364 mt  655 3324 L
 655  283 mt  655  322 L
%%IncludeResource: font Helvetica
/Helvetica /WindowsLatin1Encoding 120 FMSR

 622 3509 mt 
(0) s
1436 3364 mt 1436 3324 L
1436  283 mt 1436  322 L
1370 3509 mt 
(20) s
2217 3364 mt 2217 3324 L
2217  283 mt 2217  322 L
2151 3509 mt 
(40) s
2998 3364 mt 2998 3324 L
2998  283 mt 2998  322 L
2932 3509 mt 
(60) s
3779 3364 mt 3779 3324 L
3779  283 mt 3779  322 L
3713 3509 mt 
(80) s
4560 3364 mt 4560 3324 L
4560  283 mt 4560  322 L
4460 3509 mt 
(100) s
 655 3364 mt  694 3364 L
4560 3364 mt 4520 3364 L
 454 3408 mt 
(0.5) s
 655 3055 mt  694 3055 L
4560 3055 mt 4520 3055 L
 387 3099 mt 
(0.55) s
 655 2747 mt  694 2747 L
4560 2747 mt 4520 2747 L
 454 2791 mt 
(0.6) s
 655 2439 mt  694 2439 L
4560 2439 mt 4520 2439 L
 387 2483 mt 
(0.65) s
 655 2131 mt  694 2131 L
4560 2131 mt 4520 2131 L
 454 2175 mt 
(0.7) s
 655 1823 mt  694 1823 L
4560 1823 mt 4520 1823 L
 387 1867 mt 
(0.75) s
 655 1515 mt  694 1515 L
4560 1515 mt 4520 1515 L
 454 1559 mt 
(0.8) s
 655 1207 mt  694 1207 L
4560 1207 mt 4520 1207 L
 387 1251 mt 
(0.85) s
 655  899 mt  694  899 L
4560  899 mt 4520  899 L
 454  943 mt 
(0.9) s
 655  591 mt  694  591 L
4560  591 mt 4520  591 L
 387  635 mt 
(0.95) s
 655  283 mt  694  283 L
4560  283 mt 4520  283 L
 554  327 mt 
(1) s
 655  283 mt 4560  283 L
 655 3364 mt 4560 3364 L
4560 3364 mt 4560  283 L
 655 3364 mt  655  283 L
gs 655 283 3906 3082 rc
/c8 { 0.000000 0.000000 1.000000 sr} bdef
c8
40 -1655 39 1214 39 -828 39 1122 39 1269 39 -919 39 -1785 39 2410 
39 258 39 55 39 -37 39 -221 39 258 39 -295 39 221 39 -441 
39 239 39 239 39 -110 39 147 40 -295 39 -938 39 1196 39 18 
39 -2501 39 2336 39 -2226 39 -423 39 2281 39 -1067 39 1508 39 111 
39 -1987 39 1987 39 -313 39 110 39 129 39 -1619 39 1141 39 -2171 
40 1030 39 1362 39 55 39 -1288 39 515 39 828 39 -497 39 -1986 
39 2207 39 497 39 -37 39 -460 39 258 39 184 39 -736 39 680 
39 19 39 73 39 -220 39 -791 40 -1766 39 1269 39 1398 39 -74 
39 -55 39 184 39 -2685 39 -111 39 -110 39 2869 39 -294 39 441 
39 -91 39 -74 39 -331 39 349 39 -128 39 -736 39 -239 39 827 
40 92 39 -2520 39 2815 39 -626 39 -368 39 571 39 441 39 -589 
39 -1287 39 864 39 -1489 39 2464 39 -864 39 680 39 203 39 -37 
39 -2704 39 2667 39 -1508 694 1901 100 MP stroke
gr

c8
0 sg
2238 3652 mt 
(Iterations -->) s
 305 2223 mt  -90 rotate
(Error Rate -->) s
90 rotate

end %%Color Dict

eplot
%%EndObject

epage
end

showpage

%%Trailer
%%EOF
