\relax 
\citation{skin}
\citation{meng}
\FN@pp@footnotehinttrue 
\@writefile{toc}{\contentsline {chapter}{\numberline {4}Description of the system}{4}{chapter.4}}
\@writefile{lof}{\addvspace {10\p@ }}
\@writefile{lot}{\addvspace {10\p@ }}
\@writefile{toc}{\contentsline {section}{\numberline {4.1}Face detection}{4}{section.4.1}}
\@writefile{brf}{\backcite{skin}{{4}{4.1}{section.4.1}}}
\@writefile{toc}{\contentsline {section}{\numberline {4.2}Feature extraction}{4}{section.4.2}}
\@writefile{brf}{\backcite{meng}{{4}{4.2}{section.4.2}}}
\@writefile{lof}{\contentsline {figure}{\numberline {4.1}{\ignorespaces Face detection algorithm}}{4}{figure.4.1}}
\newlabel{Fig:FD}{{4.1}{4}{Face detection algorithm\relax }{figure.4.1}{}}
\@writefile{lof}{\contentsline {figure}{\numberline {4.2}{\ignorespaces LBP feature extraction. (a) Radius-1, (b) Radius-2, (c) Radius-4}}{5}{figure.4.2}}
\newlabel{Fig:rad2}{{4.2}{5}{LBP feature extraction. (a) Radius-1, (b) Radius-2, (c) Radius-4\relax }{figure.4.2}{}}
\@writefile{lof}{\contentsline {figure}{\numberline {4.3}{\ignorespaces LBP feature representation}}{5}{figure.4.3}}
\newlabel{Fig:LBP}{{4.3}{5}{LBP feature representation\relax }{figure.4.3}{}}
\@writefile{toc}{\contentsline {section}{\numberline {4.3}Classification}{6}{section.4.3}}
\newlabel{Eq:ED}{{4.1}{6}{Classification\relax }{equation.4.3.1}{}}
\FN@pp@footnotehinttrue 
\@writefile{lof}{\contentsline {figure}{\numberline {4.4}{\ignorespaces LBP output of a Happy state}}{6}{figure.4.4}}
\newlabel{Fig:LBP_output1}{{4.4}{6}{LBP output of a Happy state\relax }{figure.4.4}{}}
\@writefile{lof}{\contentsline {figure}{\numberline {4.5}{\ignorespaces LBP output of a Sad state}}{6}{figure.4.5}}
\newlabel{Fig:LBP_output2}{{4.5}{6}{LBP output of a Sad state\relax }{figure.4.5}{}}
\@setckpt{Description/description}{
\setcounter{page}{7}
\setcounter{equation}{1}
\setcounter{enumi}{0}
\setcounter{enumii}{0}
\setcounter{enumiii}{0}
\setcounter{enumiv}{0}
\setcounter{footnote}{0}
\setcounter{mpfootnote}{0}
\setcounter{part}{0}
\setcounter{chapter}{4}
\setcounter{section}{3}
\setcounter{subsection}{0}
\setcounter{subsubsection}{0}
\setcounter{paragraph}{0}
\setcounter{subparagraph}{0}
\setcounter{figure}{5}
\setcounter{table}{0}
\setcounter{pp@next@reset}{1}
\setcounter{@fnserial}{0}
\setcounter{NAT@ctr}{0}
\setcounter{Item}{0}
\setcounter{Hfootnote}{0}
\setcounter{bookmark@seq@number}{7}
\setcounter{lips@count}{0}
\setcounter{parentequation}{0}
\setcounter{float@type}{4}
\setcounter{section@level}{1}
}
